images/10169127_5408342646.jpg
images/95245243_234467169.jpg
images/35719192_2298527061.jpg
images/55597679_2718818848.jpg
images/26753320_3383540592.jpg
images/49118808_3956125368.jpg
images/98003320_12106601884.jpg
images/63858075_3812078922.jpg
images/31938889_10141160664.jpg
images/60161280_4586649391.jpg
