images/10980851_159911107.jpg
images/67808324_3504700051.jpg
images/10372335_3056167102.jpg
images/96789550_6435726869.jpg
images/02928139_3448003521.jpg
images/31068391_3498955714.jpg
images/61311510_9540677856.jpg
images/95833461_5456965982.jpg
images/82946251_4121478019.jpg
images/95167672_2639854316.jpg
