images/91867724_400350040.jpg
images/67770719_8270986474.jpg
images/75588968_8560140410.jpg
images/03903474_1471484089.jpg
images/92124082_180660201.jpg
images/82946251_4121478019.jpg
images/24292909_11972893303.jpg
images/31938889_10141160664.jpg
images/43644606_8225847170.jpg
images/16841636_7028528545.jpg
