images/39598026_13855927694.jpg
images/10169127_5408342646.jpg
images/66926938_4371324505.jpg
images/95245243_234467169.jpg
images/36940211_2500226864.jpg
images/58207157_8155269003.jpg
images/99128163_9106466955.jpg
images/41814686_978754656.jpg
images/74182138_8276852729.jpg
images/67090050_2810319680.jpg
