images/21746238_6963652171.jpg
images/15865748_8030415.jpg
images/51091044_3486849416.jpg
images/67741421_496100843.jpg
images/57933149_11837935973.jpg
images/18698491_4586522698.jpg
images/59914221_4605768617.jpg
images/37175111_6635304477.jpg
images/95833461_5456965982.jpg
images/76618720_2817562248.jpg
