images/66950305_12204207406.jpg
images/96789550_6435726869.jpg
images/02928139_3448003521.jpg
images/68663909_1356782012.jpg
images/18698491_4586522698.jpg
images/26753320_3383540592.jpg
images/99128163_9106466955.jpg
images/82946251_4121478019.jpg
images/96399538_6003485006.jpg
images/06083741_6775741943.jpg
