images/75416390_4269610736.jpg
images/66950305_12204207406.jpg
images/10372335_3056167102.jpg
images/10169127_5408342646.jpg
images/61311510_9540677856.jpg
images/93755222_3159769379.jpg
images/43274786_5333458956.jpg
images/26753320_3383540592.jpg
images/06083741_6775741943.jpg
images/99665578_12349574443.jpg
