images/30442266_2401730436.jpg
images/75416390_4269610736.jpg
images/66950305_12204207406.jpg
images/67808324_3504700051.jpg
images/10372335_3056167102.jpg
images/21746238_6963652171.jpg
images/50567962_6045994327.jpg
images/66926938_4371324505.jpg
images/68704605_8963148518.jpg
images/31068391_3498955714.jpg
images/36940211_2500226864.jpg
images/61311510_9540677856.jpg
images/67770719_8270986474.jpg
images/75588968_8560140410.jpg
images/36251322_181460308.jpg
images/57933149_11837935973.jpg
images/22514439_6984334267.jpg
images/55597679_2718818848.jpg
images/99128163_9106466955.jpg
images/98281727_3845840334.jpg
images/75519914_2079302390.jpg
images/49118808_3956125368.jpg
images/98003320_12106601884.jpg
images/86731151_442052253.jpg
images/31938889_10141160664.jpg
