images/30442266_2401730436.jpg
images/75416390_4269610736.jpg
images/10980851_159911107.jpg
images/91530634_2958536780.jpg
images/68704605_8963148518.jpg
images/87446292_3971192822.jpg
images/36940211_2500226864.jpg
images/51091044_3486849416.jpg
images/67741421_496100843.jpg
images/67770719_8270986474.jpg
images/36251322_181460308.jpg
images/60584745_2207571072.jpg
images/57933149_11837935973.jpg
images/73447273_415773485.jpg
images/18698491_4586522698.jpg
images/43274786_5333458956.jpg
images/99128163_9106466955.jpg
images/67090050_2810319680.jpg
images/81282261_3885204620.jpg
images/73660716_1347978321.jpg
images/95833461_5456965982.jpg
images/96399538_6003485006.jpg
images/98003320_12106601884.jpg
images/99665578_12349574443.jpg
images/95167672_2639854316.jpg
