images/62239750_5135505236.jpg
images/67808324_3504700051.jpg
images/96789550_6435726869.jpg
images/53515910_7697309520.jpg
images/88074069_5867013385.jpg
images/39598026_13855927694.jpg
images/93341989_396310999.jpg
images/95245243_234467169.jpg
images/67741421_496100843.jpg
images/38552135_2122457546.jpg
images/75588968_8560140410.jpg
images/60584745_2207571072.jpg
images/26753320_3383540592.jpg
images/39585572_5151898468.jpg
images/99128163_9106466955.jpg
images/98281727_3845840334.jpg
images/73660716_1347978321.jpg
images/82946251_4121478019.jpg
images/06083741_6775741943.jpg
images/24292909_11972893303.jpg
images/02085496_6952371977.jpg
images/31938889_10141160664.jpg
images/47058715_3625029597.jpg
images/60161280_4586649391.jpg
images/76618720_2817562248.jpg
