images/30442266_2401730436.jpg
images/53515910_7697309520.jpg
images/88074069_5867013385.jpg
images/73324956_7004414541.jpg
images/10169127_5408342646.jpg
images/93341989_396310999.jpg
images/68704605_8963148518.jpg
images/61311510_9540677856.jpg
images/75588968_8560140410.jpg
images/35719192_2298527061.jpg
images/59914221_4605768617.jpg
images/55597679_2718818848.jpg
images/41814686_978754656.jpg
images/02957488_2184292184.jpg
images/75519914_2079302390.jpg
images/61702125_8353062682.jpg
images/74182138_8276852729.jpg
images/77653698_4129853031.jpg
images/81282261_3885204620.jpg
images/98003320_12106601884.jpg
images/63858075_3812078922.jpg
images/47058715_3625029597.jpg
images/95167672_2639854316.jpg
images/16841636_7028528545.jpg
images/60161280_4586649391.jpg
