images/62239750_5135505236.jpg
images/30442266_2401730436.jpg
images/10372335_3056167102.jpg
images/91530634_2958536780.jpg
images/53515910_7697309520.jpg
images/66926938_4371324505.jpg
images/93341989_396310999.jpg
images/32809961_8274055477.jpg
images/51091044_3486849416.jpg
images/61311510_9540677856.jpg
images/93755222_3159769379.jpg
images/67770719_8270986474.jpg
images/03903474_1471484089.jpg
images/39852107_3868092306.jpg
images/26753320_3383540592.jpg
images/58207157_8155269003.jpg
images/75519914_2079302390.jpg
images/77653698_4129853031.jpg
images/37175111_6635304477.jpg
images/57605706_3978951760.jpg
images/82946251_4121478019.jpg
images/17295357_9106075285.jpg
images/89726595_2807643525.jpg
images/68541133_442050280.jpg
images/76618720_2817562248.jpg
