images/76618720_2817562248.jpg
images/60161280_4586649391.jpg
images/16841636_7028528545.jpg
images/95167672_2639854316.jpg
images/47058715_3625029597.jpg
images/43644606_8225847170.jpg
images/99665578_12349574443.jpg
images/36444123_11342374496.jpg
images/31938889_10141160664.jpg
images/96202520_5911138576.jpg
images/86731151_442052253.jpg
images/68541133_442050280.jpg
images/63858075_3812078922.jpg
images/18128778_2284948455.jpg
images/02085496_6952371977.jpg
images/98003320_12106601884.jpg
images/89726595_2807643525.jpg
images/17295357_9106075285.jpg
images/49118808_3956125368.jpg
images/24292909_11972893303.jpg
images/06083741_6775741943.jpg
images/43875738_3181309891.jpg
images/29316928_4862042124.jpg
images/10265353_3838484249.jpg
images/96399538_6003485006.jpg
images/82946251_4121478019.jpg
images/57605706_3978951760.jpg
images/95833461_5456965982.jpg
images/73660716_1347978321.jpg
images/37175111_6635304477.jpg
images/81282261_3885204620.jpg
images/77653698_4129853031.jpg
images/67090050_2810319680.jpg
images/88524579_4122163320.jpg
images/74182138_8276852729.jpg
images/61702125_8353062682.jpg
images/99119091_3503925030.jpg
images/75519914_2079302390.jpg
images/02957488_2184292184.jpg
images/98281727_3845840334.jpg
images/92124082_180660201.jpg
images/41814686_978754656.jpg
images/99128163_9106466955.jpg
images/58207157_8155269003.jpg
images/20559588_6565810191.jpg
images/81935357_9658163122.jpg
images/39585572_5151898468.jpg
images/26753320_3383540592.jpg
images/55597679_2718818848.jpg
images/43274786_5333458956.jpg
images/39852107_3868092306.jpg
images/59914221_4605768617.jpg
images/22514439_6984334267.jpg
images/18698491_4586522698.jpg
images/73447273_415773485.jpg
images/57933149_11837935973.jpg
images/35719192_2298527061.jpg
images/60584745_2207571072.jpg
images/36251322_181460308.jpg
images/03903474_1471484089.jpg
images/75588968_8560140410.jpg
images/67770719_8270986474.jpg
images/93755222_3159769379.jpg
images/68663909_1356782012.jpg
images/38552135_2122457546.jpg
images/61311510_9540677856.jpg
images/91867724_400350040.jpg
images/67741421_496100843.jpg
images/51091044_3486849416.jpg
images/36940211_2500226864.jpg
images/32809961_8274055477.jpg
images/31068391_3498955714.jpg
images/95245243_234467169.jpg
images/87446292_3971192822.jpg
images/68704605_8963148518.jpg
images/93341989_396310999.jpg
images/66926938_4371324505.jpg
images/71295362_4051449754.jpg
images/15865748_8030415.jpg
images/10169127_5408342646.jpg
images/73324956_7004414541.jpg
images/39598026_13855927694.jpg
images/02928139_3448003521.jpg
images/88074069_5867013385.jpg
images/53515910_7697309520.jpg
images/47698078_3766965066.jpg
images/96789550_6435726869.jpg
images/91530634_2958536780.jpg
images/44120379_8371960244.jpg
images/50567962_6045994327.jpg
images/21746238_6963652171.jpg
images/10372335_3056167102.jpg
images/67808324_3504700051.jpg
images/66950305_12204207406.jpg
images/10980851_159911107.jpg
images/75416390_4269610736.jpg
images/64966234_8900198268.jpg
images/30442266_2401730436.jpg
images/96707142_3538929646.jpg
images/62239750_5135505236.jpg
