171.0
557.0
490.0
0.0
529.0
241.0
0.0
988.0
235.0
0.0
975.0
210.0
403.0
56.0
81.0
0.0
38.0
123.0
716.0
247.0
123.0
379.0
471.0
288.0
0.0
377.0
342.0
0.0
195.0
176.0
548.0
587.0
50.0
460.0
527.0
201.0
0.0
636.0
104.0
0.0
-1.0
660.0
0.0
111.0
98.0
436.0
684.0
624.0
1176.0
432.0
486.0
592.0
40.0
379.0
469.0
912.0
61.0
314.0
230.0
1074.0
217.0
257.0
0.0
1481.0
113.0
453.0
930.0
133.0
313.0
342.0
193.0
527.0
0.0
481.0
712.0
0.0
266.0
292.0
258.0
208.0
199.0
641.0
345.0
113.0
215.0
273.0
0.0
315.0
375.0
63.0
412.0
166.0
152.0
292.0
417.0
307.0
249.0
858.0
0.0
206.0
