0.0
0.0
409.0
0.0
0.0
645.0
0.0
662.0
811.0
0.0
0.0
0.0
0.0
332.0
358.0
0.0
0.0
562.0
0.0
456.0
446.0
1015.0
508.0
425.0
0.0
0.0
0.0
0.0
0.0
733.0
0.0
0.0
0.0
0.0
0.0
0.0
0.0
0.0
256.0
0.0
0.0
361.0
0.0
0.0
411.0
0.0
400.0
1033.0
0.0
724.0
542.0
0.0
289.0
998.0
0.0
0.0
266.0
0.0
567.0
608.0
0.0
0.0
0.0
0.0
444.0
0.0
0.0
0.0
0.0
969.0
196.0
967.0
0.0
0.0
0.0
0.0
0.0
0.0
684.0
178.0
0.0
635.0
748.0
0.0
0.0
0.0
0.0
0.0
-1.0
0.0
875.0
732.0
0.0
0.0
386.0
0.0
0.0
643.0
0.0
0.0
