396.0
890.0
723.0
0.0
743.0
581.0
0.0
923.0
472.0
0.0
0.0
488.0
688.0
170.0
188.0
0.0
0.0
292.0
967.0
370.0
260.0
679.0
538.0
617.0
0.0
0.0
696.0
0.0
296.0
392.0
0.0
-1.0
136.0
0.0
938.0
405.0
0.0
909.0
178.0
0.0
0.0
578.0
0.0
217.0
252.0
0.0
619.0
917.0
982.0
598.0
592.0
873.0
123.0
707.0
514.0
1469.0
148.0
575.0
406.0
1092.0
430.0
615.0
0.0
968.0
331.0
676.0
0.0
256.0
550.0
666.0
246.0
874.0
0.0
0.0
849.0
0.0
536.0
652.0
472.0
259.0
323.0
702.0
623.0
0.0
396.0
478.0
0.0
0.0
800.0
159.0
695.0
410.0
306.0
563.0
581.0
619.0
394.0
868.0
0.0
437.0
