0.0
0.0
493.0
0.0
0.0
0.0
0.0
0.0
0.0
0.0
0.0
0.0
0.0
325.0
294.0
0.0
0.0
504.0
0.0
411.0
427.0
0.0
610.0
411.0
0.0
0.0
0.0
0.0
0.0
0.0
0.0
0.0
0.0
0.0
0.0
0.0
0.0
0.0
274.0
0.0
0.0
0.0
0.0
0.0
424.0
0.0
0.0
1335.0
0.0
0.0
0.0
0.0
285.0
1024.0
0.0
0.0
0.0
0.0
0.0
825.0
0.0
0.0
0.0
0.0
0.0
0.0
0.0
0.0
0.0
0.0
0.0
-1.0
0.0
0.0
0.0
0.0
0.0
0.0
640.0
211.0
0.0
0.0
695.0
0.0
0.0
0.0
0.0
0.0
0.0
0.0
746.0
712.0
0.0
0.0
457.0
0.0
0.0
890.0
0.0
0.0
