1412.0
620.0
250.0
666.0
545.0
544.0
0.0
405.0
1047.0
0.0
361.0
1218.0
668.0
708.0
788.0
0.0
451.0
836.0
619.0
387.0
785.0
770.0
341.0
278.0
0.0
297.0
549.0
-1.0
808.0
518.0
927.0
434.0
639.0
742.0
570.0
699.0
0.0
708.0
275.0
0.0
189.0
156.0
0.0
220.0
623.0
600.0
174.0
829.0
312.0
600.0
413.0
741.0
616.0
1369.0
309.0
404.0
564.0
344.0
411.0
333.0
415.0
686.0
282.0
318.0
656.0
533.0
304.0
679.0
1200.0
838.0
134.0
743.0
110.0
499.0
235.0
1216.0
1390.0
1490.0
582.0
88.0
211.0
324.0
610.0
1187.0
185.0
1177.0
0.0
344.0
784.0
560.0
395.0
1428.0
865.0
1025.0
298.0
365.0
572.0
423.0
0.0
212.0
