1159.0
425.0
173.0
0.0
390.0
411.0
0.0
302.0
829.0
0.0
249.0
983.0
511.0
666.0
617.0
0.0
0.0
702.0
456.0
306.0
608.0
589.0
248.0
196.0
0.0
212.0
452.0
0.0
627.0
381.0
579.0
304.0
580.0
0.0
398.0
545.0
0.0
535.0
255.0
0.0
0.0
117.0
0.0
174.0
545.0
430.0
124.0
626.0
216.0
432.0
281.0
525.0
529.0
1077.0
237.0
283.0
490.0
264.0
336.0
240.0
302.0
548.0
0.0
216.0
628.0
389.0
0.0
565.0
925.0
628.0
80.0
561.0
0.0
354.0
158.0
0.0
1244.0
1148.0
486.0
63.0
173.0
242.0
476.0
-1.0
124.0
908.0
0.0
0.0
587.0
431.0
295.0
1257.0
703.0
771.0
232.0
361.0
437.0
297.0
0.0
171.0
