0.0
0.0
250.0
0.0
0.0
0.0
0.0
315.0
472.0
0.0
0.0
0.0
0.0
294.0
261.0
0.0
0.0
403.0
0.0
284.0
336.0
0.0
253.0
244.0
0.0
0.0
0.0
0.0
0.0
-1.0
0.0
0.0
0.0
0.0
0.0
0.0
0.0
0.0
304.0
0.0
0.0
0.0
0.0
0.0
377.0
0.0
0.0
517.0
0.0
0.0
0.0
0.0
254.0
535.0
0.0
0.0
238.0
0.0
423.0
304.0
0.0
0.0
0.0
0.0
0.0
0.0
0.0
0.0
0.0
637.0
107.0
601.0
0.0
0.0
0.0
0.0
0.0
0.0
449.0
89.0
0.0
0.0
364.0
0.0
0.0
0.0
0.0
0.0
0.0
0.0
418.0
472.0
0.0
0.0
231.0
0.0
0.0
354.0
0.0
0.0
