280.0
722.0
579.0
0.0
738.0
500.0
0.0
1706.0
290.0
0.0
1110.0
382.0
603.0
102.0
142.0
0.0
69.0
232.0
864.0
311.0
215.0
517.0
1140.0
345.0
0.0
382.0
512.0
0.0
268.0
244.0
789.0
645.0
96.0
519.0
625.0
307.0
0.0
809.0
120.0
0.0
0.0
549.0
0.0
109.0
178.0
662.0
814.0
1039.0
1300.0
768.0
1074.0
872.0
78.0
612.0
406.0
946.0
97.0
251.0
339.0
1064.0
256.0
404.0
0.0
1291.0
248.0
496.0
-1.0
205.0
498.0
488.0
219.0
725.0
0.0
579.0
652.0
0.0
432.0
442.0
346.0
229.0
186.0
847.0
501.0
220.0
237.0
437.0
0.0
753.0
532.0
223.0
615.0
282.0
250.0
469.0
384.0
428.0
273.0
1333.0
0.0
223.0
