0.0
0.0
749.0
0.0
0.0
0.0
0.0
-1.0
264.0
0.0
0.0
0.0
0.0
168.0
180.0
0.0
0.0
291.0
0.0
388.0
271.0
0.0
1070.0
422.0
0.0
0.0
0.0
0.0
0.0
0.0
0.0
0.0
0.0
0.0
0.0
0.0
0.0
0.0
193.0
0.0
0.0
0.0
0.0
0.0
223.0
0.0
0.0
1128.0
0.0
0.0
0.0
0.0
116.0
736.0
0.0
0.0
138.0
0.0
335.0
1504.0
0.0
0.0
0.0
0.0
0.0
0.0
0.0
0.0
0.0
0.0
239.0
894.0
0.0
0.0
0.0
0.0
0.0
0.0
472.0
282.0
0.0
0.0
576.0
0.0
0.0
0.0
0.0
0.0
0.0
0.0
757.0
389.0
0.0
0.0
595.0
0.0
0.0
1727.0
0.0
0.0
