461.0
1198.0
460.0
493.0
544.0
501.0
0.0
1017.0
449.0
133.0
825.0
355.0
445.0
140.0
207.0
0.0
95.0
254.0
1153.0
294.0
235.0
429.0
452.0
274.0
-1.0
307.0
416.0
441.0
282.0
272.0
664.0
679.0
142.0
608.0
552.0
595.0
0.0
724.0
106.0
0.0
618.0
477.0
0.0
164.0
181.0
490.0
537.0
744.0
1062.0
635.0
496.0
762.0
119.0
611.0
872.0
985.0
118.0
528.0
234.0
800.0
357.0
365.0
122.0
1032.0
205.0
526.0
649.0
256.0
478.0
415.0
194.0
612.0
165.0
652.0
541.0
392.0
546.0
507.0
403.0
166.0
542.0
567.0
403.0
290.0
183.0
393.0
0.0
318.0
555.0
197.0
480.0
418.0
237.0
508.0
560.0
455.0
341.0
721.0
0.0
214.0
