0.0
0.0
167.0
0.0
0.0
0.0
0.0
0.0
0.0
0.0
0.0
0.0
0.0
548.0
411.0
0.0
0.0
623.0
0.0
0.0
471.0
0.0
0.0
177.0
0.0
0.0
0.0
0.0
0.0
0.0
0.0
0.0
0.0
0.0
0.0
0.0
0.0
0.0
238.0
0.0
0.0
0.0
0.0
0.0
-1.0
0.0
0.0
0.0
0.0
0.0
0.0
0.0
0.0
623.0
0.0
0.0
0.0
0.0
0.0
165.0
0.0
0.0
0.0
0.0
0.0
0.0
0.0
0.0
0.0
0.0
0.0
0.0
0.0
0.0
0.0
0.0
0.0
0.0
382.0
62.0
0.0
0.0
309.0
0.0
0.0
0.0
0.0
0.0
0.0
0.0
0.0
685.0
0.0
0.0
169.0
0.0
0.0
0.0
0.0
0.0
